Reshaping – COMP/STAT112 Notebook
…
308
2
250.80

Part a

Use pivot_longer() to create the long-format dataset above. Show the first 3 lines (head(3)), which should be similar to those above. Follow-up: Thinking forward to plotting reaction time vs day for each subject, what would you like to fix / change about this dataset?

# For cols, try 2 approaches: using - and starts_with
sleep_wide |>
  pivot_longer(cols = c(day_0, day_1, day_2, day_3, day_4, day_5, day_5, day_6, day_7, day_8, day_9), names_to = "day", names_prefix = "day_", values_to = "reaction time")

# A tibble: 180 × 3
   Subject day   `reaction time`
     <int> <chr>           <dbl>
 1     308 0                250.
 2     308 1                259.
 3     308 2                251.
 4     308 3                321.
 5     308 4                357.
 6     308 5                415.
 7     308 6                382.
 8     308 7                290.
 9     308 8                431.
10     308 9                466.
# ℹ 170 more rows
…
subjects/people

Part c

pivot_longer()

Exercise 2: Pivot longer

Part a

# For cols, try 2 appproaches: using - and starts_with
sleep_wide |>
  pivot_longer(cols = -Subject, names_to = "day", values_to = "reaction_time")

# A tibble: 180 × 3
   Subject day   reaction_time
     <int> <chr>         <dbl>
 1     308 day_0          250.
 2     308 day_1          259.
 3     308 day_2          251.
 4     308 day_3          321.
 5     308 day_4          357.
 6     308 day_5          415.
 7     308 day_6          382.
 8     308 day_7          290.
 9     308 day_8          431.
10     308 day_9          466.
# ℹ 170 more rows

sleep_wide |>
  pivot_longer(cols = starts_with("day"), names_to = "day", values_to = "reaction_time")

# A tibble: 180 × 3
   Subject day   reaction_time
     <int> <chr>         <dbl>
 1     308 day_0          250.
 2     308 day_1          259.
 3     308 day_2          251.
 4     308 day_3          321.
 5     308 day_4          357.
 6     308 day_5          415.
 7     308 day_6          382.
 8     308 day_7          290.
 9     308 day_8          431.
10     308 day_9          466.
# ℹ 170 more rows
…
